{
  "bidderPosition": 1,
  "values": {
    "2": 16.91411630601579219046470825560390949249267578125,
    "3": 8.6240526326998434569759410806000232696533203125,
    "4": 22.8636218240222888198331929743289947509765625,
    "5": 1.2324081229476480103812718880362808704376220703125,
    "13": 11.4073049188216497640269153635017573833465576171875,
    "14": 17.52869112380022187380745890550315380096435546875
  },
  "setupType": "Regional Bidder Setup",
  "population": 0,
  "id": 1,
  "worldId": 2,
  "setup": {
    "lowNationalValueInterval": {
      "minValue": 0.0,
      "maxValue": 20.0
    },
    "highNationalValueInterval": {
      "minValue": 0.0,
      "maxValue": 40.0
    },
    "regionalValueInterval": {
      "minValue": 0.0,
      "maxValue": 20.0
    },
    "setupName": "Regional Bidder Setup",
    "numberOfBidders": 6
  },
  "implementation": "org.spectrumauctions.sats.core.model.gsvm.GSVMBidder"
}