{
  "bidderPosition": 3,
  "values": {
    "16": 6.394365606794696788028886658139526844024658203125,
    "6": 1.10897861166398659094056711182929575443267822265625,
    "7": 17.309294048745019978241543867625296115875244140625,
    "8": 4.54898867640107784637848453712649643421173095703125,
    "9": 2.201543069538132169071786847780458629131317138671875,
    "15": 7.387082027326091093755167094059288501739501953125
  },
  "setupType": "Regional Bidder Setup",
  "population": 0,
  "id": 3,
  "worldId": 1,
  "setup": {
    "lowNationalValueInterval": {
      "minValue": 0.0,
      "maxValue": 20.0
    },
    "highNationalValueInterval": {
      "minValue": 0.0,
      "maxValue": 40.0
    },
    "regionalValueInterval": {
      "minValue": 0.0,
      "maxValue": 20.0
    },
    "setupName": "Regional Bidder Setup",
    "numberOfBidders": 6
  },
  "implementation": "org.spectrumauctions.sats.core.model.gsvm.GSVMBidder"
}