{
  "bidderPosition": 1,
  "values": {
    "2": 18.51009257931205098657301277853548526763916015625,
    "3": 1.50995282165595323675688632647506892681121826171875,
    "4": 24.859863828502884786075810552574694156646728515625,
    "5": 17.81693639636926462799237924627959728240966796875,
    "13": 12.4296264791841810648520549875684082508087158203125,
    "14": 10.696258999610989803841221146285533905029296875
  },
  "setupType": "Regional Bidder Setup",
  "population": 0,
  "id": 1,
  "worldId": 0,
  "setup": {
    "lowNationalValueInterval": {
      "minValue": 0.0,
      "maxValue": 20.0
    },
    "highNationalValueInterval": {
      "minValue": 0.0,
      "maxValue": 40.0
    },
    "regionalValueInterval": {
      "minValue": 0.0,
      "maxValue": 20.0
    },
    "setupName": "Regional Bidder Setup",
    "numberOfBidders": 6
  },
  "implementation": "org.spectrumauctions.sats.core.model.gsvm.GSVMBidder"
}