[
  {
    "bidder": 0,
    "bids": [
      {
        "licenses": [
          0,
          1,
          4,
          6,
          7,
          8,
          9,
          10,
          12,
          13,
          14,
          15,
          17
        ],
        "value": "211.8014"
      },
      {
        "licenses": [
          1,
          2,
          5,
          6,
          7,
          10,
          11,
          12,
          14,
          15
        ],
        "value": "112.0129"
      },
      {
        "licenses": [
          0,
          1,
          2,
          3,
          4,
          5,
          6,
          7,
          8,
          11,
          13,
          14,
          15,
          17
        ],
        "value": "316.2783"
      },
      {
        "licenses": [
          4,
          6,
          8,
          9,
          13,
          14,
          15
        ],
        "value": "42.4186"
      },
      {
        "licenses": [
          7,
          12
        ],
        "value": "10.6787"
      },
      {
        "licenses": [
          4,
          6,
          9,
          12,
          13,
          15,
          17
        ],
        "value": "61.9962"
      },
      {
        "licenses": [
          0,
          1,
          3,
          4,
          6,
          7,
          9,
          11,
          12,
          15,
          16,
          17
        ],
        "value": "196.1038"
      },
      {
        "licenses": [
          1,
          6,
          7,
          8,
          10,
          12,
          14,
          15,
          16
        ],
        "value": "61.9172"
      },
      {
        "licenses": [
          3,
          9,
          11
        ],
        "value": "25.5768"
      },
      {
        "licenses": [
          0,
          2,
          3,
          4,
          5,
          6,
          8,
          9,
          10,
          12,
          13,
          14,
          15,
          16,
          17
        ],
        "value": "310.9865"
      }
    ]
  },
  {
    "bidder": 1,
    "bids": [
      {
        "licenses": [
          0,
          1,
          2,
          3,
          5,
          6,
          8,
          9,
          10,
          11,
          12,
          13,
          14,
          15,
          16,
          17
        ],
        "value": "277.3079"
      },
      {
        "licenses": [
          0,
          1,
          3,
          4,
          6,
          8,
          11,
          13
        ],
        "value": "103.2111"
      },
      {
        "licenses": [
          1,
          2,
          3,
          4,
          5,
          6,
          8,
          9,
          12,
          16
        ],
        "value": "198.5940"
      },
      {
        "licenses": [
          0,
          4,
          6,
          7,
          8,
          12,
          13,
          14,
          16
        ],
        "value": "124.2854"
      },
      {
        "licenses": [
          0,
          3,
          16
        ],
        "value": "5.1864"
      },
      {
        "licenses": [
          1,
          9,
          11,
          12,
          13,
          15,
          16,
          17
        ],
        "value": "35.0383"
      },
      {
        "licenses": [
          0,
          9
        ],
        "value": "0.0000"
      },
      {
        "licenses": [
          9,
          12,
          17
        ],
        "value": "0.0000"
      },
      {
        "licenses": [
          0,
          1,
          2,
          3,
          6,
          8,
          11,
          12,
          13,
          14,
          15,
          17
        ],
        "value": "115.4657"
      },
      {
        "licenses": [
          3,
          4,
          5,
          7,
          9,
          12,
          13,
          14,
          16
        ],
        "value": "220.3515"
      }
    ]
  },
  {
    "bidder": 2,
    "bids": [
      {
        "licenses": [
          0,
          1,
          2,
          3,
          5,
          6,
          8,
          9,
          10,
          11,
          12,
          13,
          14,
          15,
          16,
          17
        ],
        "value": "235.2629"
      },
      {
        "licenses": [
          0,
          1,
          3,
          4,
          6,
          8,
          11,
          13
        ],
        "value": "66.7069"
      },
      {
        "licenses": [
          1,
          2,
          3,
          4,
          5,
          6,
          8,
          9,
          12,
          16
        ],
        "value": "147.2175"
      },
      {
        "licenses": [
          0,
          4,
          6,
          7,
          8,
          12,
          13,
          14,
          16
        ],
        "value": "183.5197"
      },
      {
        "licenses": [
          0,
          3,
          16
        ],
        "value": "0.0000"
      },
      {
        "licenses": [
          1,
          9,
          11,
          12,
          13,
          15,
          16,
          17
        ],
        "value": "46.8019"
      },
      {
        "licenses": [
          0,
          9
        ],
        "value": "0.0000"
      },
      {
        "licenses": [
          9,
          12,
          17
        ],
        "value": "0.0000"
      },
      {
        "licenses": [
          0,
          1,
          2,
          3,
          6,
          8,
          11,
          12,
          13,
          14,
          15,
          17
        ],
        "value": "108.9042"
      },
      {
        "licenses": [
          3,
          4,
          5,
          7,
          9,
          12,
          13,
          14,
          16
        ],
        "value": "238.6851"
      }
    ]
  },
  {
    "bidder": 3,
    "bids": [
      {
        "licenses": [
          0,
          1,
          2,
          3,
          5,
          6,
          8,
          9,
          10,
          11,
          12,
          13,
          14,
          15,
          16,
          17
        ],
        "value": "86.5638"
      },
      {
        "licenses": [
          0,
          1,
          3,
          4,
          6,
          8,
          11,
          13
        ],
        "value": "13.5791"
      },
      {
        "licenses": [
          1,
          2,
          3,
          4,
          5,
          6,
          8,
          9,
          12,
          16
        ],
        "value": "39.9109"
      },
      {
        "licenses": [
          0,
          4,
          6,
          7,
          8,
          12,
          13,
          14,
          16
        ],
        "value": "76.3402"
      },
      {
        "licenses": [
          0,
          3,
          16
        ],
        "value": "8.9521"
      },
      {
        "licenses": [
          1,
          9,
          11,
          12,
          13,
          15,
          16,
          17
        ],
        "value": "38.3592"
      },
      {
        "licenses": [
          0,
          9
        ],
        "value": "2.6419"
      },
      {
        "licenses": [
          9,
          12,
          17
        ],
        "value": "3.0822"
      },
      {
        "licenses": [
          0,
          1,
          2,
          3,
          6,
          8,
          11,
          12,
          13,
          14,
          15,
          17
        ],
        "value": "41.7442"
      },
      {
        "licenses": [
          3,
          4,
          5,
          7,
          9,
          12,
          13,
          14,
          16
        ],
        "value": "67.3535"
      }
    ]
  },
  {
    "bidder": 4,
    "bids": [
      {
        "licenses": [
          0,
          1,
          2,
          3,
          5,
          6,
          8,
          9,
          10,
          11,
          12,
          13,
          14,
          15,
          16,
          17
        ],
        "value": "324.9349"
      },
      {
        "licenses": [
          0,
          1,
          3,
          4,
          6,
          8,
          11,
          13
        ],
        "value": "62.4707"
      },
      {
        "licenses": [
          1,
          2,
          3,
          4,
          5,
          6,
          8,
          9,
          12,
          16
        ],
        "value": "107.5606"
      },
      {
        "licenses": [
          0,
          4,
          6,
          7,
          8,
          12,
          13,
          14,
          16
        ],
        "value": "71.7382"
      },
      {
        "licenses": [
          0,
          3,
          16
        ],
        "value": "27.3767"
      },
      {
        "licenses": [
          1,
          9,
          11,
          12,
          13,
          15,
          16,
          17
        ],
        "value": "140.4835"
      },
      {
        "licenses": [
          0,
          9
        ],
        "value": "12.9875"
      },
      {
        "licenses": [
          9,
          12,
          17
        ],
        "value": "29.3824"
      },
      {
        "licenses": [
          0,
          1,
          2,
          3,
          6,
          8,
          11,
          12,
          13,
          14,
          15,
          17
        ],
        "value": "115.8207"
      },
      {
        "licenses": [
          3,
          4,
          5,
          7,
          9,
          12,
          13,
          14,
          16
        ],
        "value": "78.9819"
      }
    ]
  },
  {
    "bidder": 5,
    "bids": [
      {
        "licenses": [
          0,
          1,
          2,
          3,
          5,
          6,
          8,
          9,
          10,
          11,
          12,
          13,
          14,
          15,
          16,
          17
        ],
        "value": "290.7885"
      },
      {
        "licenses": [
          0,
          1,
          3,
          4,
          6,
          8,
          11,
          13
        ],
        "value": "99.8162"
      },
      {
        "licenses": [
          1,
          2,
          3,
          4,
          5,
          6,
          8,
          9,
          12,
          16
        ],
        "value": "75.1658"
      },
      {
        "licenses": [
          0,
          4,
          6,
          7,
          8,
          12,
          13,
          14,
          16
        ],
        "value": "86.8053"
      },
      {
        "licenses": [
          0,
          3,
          16
        ],
        "value": "26.4058"
      },
      {
        "licenses": [
          1,
          9,
          11,
          12,
          13,
          15,
          16,
          17
        ],
        "value": "91.1501"
      },
      {
        "licenses": [
          0,
          9
        ],
        "value": "22.6336"
      },
      {
        "licenses": [
          9,
          12,
          17
        ],
        "value": "21.3506"
      },
      {
        "licenses": [
          0,
          1,
          2,
          3,
          6,
          8,
          11,
          12,
          13,
          14,
          15,
          17
        ],
        "value": "181.8896"
      },
      {
        "licenses": [
          3,
          4,
          5,
          7,
          9,
          12,
          13,
          14,
          16
        ],
        "value": "37.7659"
      }
    ]
  },
  {
    "bidder": 6,
    "bids": [
      {
        "licenses": [
          0,
          1,
          2,
          3,
          5,
          6,
          8,
          9,
          10,
          11,
          12,
          13,
          14,
          15,
          16,
          17
        ],
        "value": "291.1601"
      },
      {
        "licenses": [
          0,
          1,
          3,
          4,
          6,
          8,
          11,
          13
        ],
        "value": "114.3032"
      },
      {
        "licenses": [
          1,
          2,
          3,
          4,
          5,
          6,
          8,
          9,
          12,
          16
        ],
        "value": "182.4377"
      },
      {
        "licenses": [
          0,
          4,
          6,
          7,
          8,
          12,
          13,
          14,
          16
        ],
        "value": "101.9597"
      },
      {
        "licenses": [
          0,
          3,
          16
        ],
        "value": "20.6355"
      },
      {
        "licenses": [
          1,
          9,
          11,
          12,
          13,
          15,
          16,
          17
        ],
        "value": "60.6150"
      },
      {
        "licenses": [
          0,
          9
        ],
        "value": "15.4732"
      },
      {
        "licenses": [
          9,
          12,
          17
        ],
        "value": "9.3930"
      },
      {
        "licenses": [
          0,
          1,
          2,
          3,
          6,
          8,
          11,
          12,
          13,
          14,
          15,
          17
        ],
        "value": "148.7588"
      },
      {
        "licenses": [
          3,
          4,
          5,
          7,
          9,
          12,
          13,
          14,
          16
        ],
        "value": "159.9405"
      }
    ]
  }
]